^C:\USERS\JOSHU\SOURCE\REPOS\HAVEL_HAKIMI_ALGORITHM_SOLUTION\HAVEL_HAKIMI_ALGORITHM\DEBUG\MAIN.OBJ
C:\USERS\JOSHU\SOURCE\REPOS\HAVEL_HAKIMI_ALGORITHM_SOLUTION\DEBUG\HAVEL_HAKIMI_ALGORITHM.EXE
C:\USERS\JOSHU\SOURCE\REPOS\HAVEL_HAKIMI_ALGORITHM_SOLUTION\DEBUG\HAVEL_HAKIMI_ALGORITHM.ILK
C:\USERS\JOSHU\SOURCE\REPOS\HAVEL_HAKIMI_ALGORITHM_SOLUTION\DEBUG\HAVEL_HAKIMI_ALGORITHM.PDB
